UNIT10B：期中專案(OLIST)資料探索(2)
…
category = X %>% group_by(category) %>% 
  summarise(
    concentrate = sum(share^2),
    top3.con = max(c.share[rn <= 3]),
    top5.con = max(c.share[rn <= 5]),
    top10.con = max(c.share[rn <= 10])
  ) %>% 
  right_join(category) %>% 
  arrange(desc(concentrate))

Joining, by = "category"

filter(category, totalRev > 100000)[,c(1:4,7,10)]

# A tibble: 26 x 6
   category            concentrate top3.con top5.con totalRev noSeller
   <chr>                     <dbl>    <dbl>    <dbl>    <dbl>    <int>
 1 computers                0.580     0.917    0.968  222963.        9
 2 office_furniture         0.423     0.815    0.874  273961.       34
 3 home_appliances_2        0.141     0.499    0.583  113318.       46
 4 stationery               0.134     0.466    0.536  230943.      173
 5 watches_gifts            0.0931    0.467    0.626 1205006.      101
 6 luggage_accessories      0.0920    0.430    0.550  140430.       73
 7 musical_instruments      0.0916    0.476    0.564  191499.       70
 8 consoles_games           0.0832    0.395    0.506  157465.       82
 9 perfumery                0.0828    0.446    0.552  399125.      175
10 garden_tools             0.0709    0.398    0.471  485256.      237
# … with 16 more rows
…
